com\directline\www\pages\BasePage.class
com\directline\www\pages\HomePage.class
com\directline\www\browsers\WebDriverFactory.class
com\directline\www\utilities\EnvConfig.class
com\directline\www\browsers\LocalBrowserManager.class
